// Jest Snapshot v1, https://goo.gl/fbAQLP

exports[`pruebas de primeraApp debe de mostrar <primeraApp> correctamente  1`] = `
<Fragment>
  <h1>
     
    hola soy goku
     
  </h1>
  <p>
    soy un subtitulo
  </p>
</Fragment>
`;
